{
  "dev": {
    "appliactionName": "new-app",
    "slug": "test",
    "debug": "XDEBUG_SESSION=PHPSTORM;",
    "url": "symfony.localhost",
    "adminPassword": "password",
    "adminEmail": "admin@email.com"
  }
}
